Métodos computacionales para las ciencias sociales
…
0.781 sec elapsed

media_escolaridad

# A tibble: 346 × 3
   COMUNA media glosa         
    <dbl> <dbl> <chr>         
 1  13502  21.5 Alhué         
 2  13123  17.9 Providencia   
 3  13114  17.4 Las Condes    
 4  13132  17.3 Vitacura      
 5  13120  16.9 Ñuñoa         
 6   1403  16.8 Colchane      
 7   5201  16.7 Isla de Pascua
 8  13101  16.2 Santiago      
 9  13113  16.1 La Reina      
10   5604  15.9 El Quisco     
# ℹ 336 more rows
…
tic()
media_escolaridad <-  personas %>% 
  rename(sexo = P08,
         edad = P09) %>% 
  filter(edad >= 30 & edad <= 60) %>%  
  group_by(COMUNA, sexo) %>% 
  summarise(media = round(mean(ESCOLARIDAD), 2)) %>% 
  left_join(etiquetas, by = c("COMUNA" = "valor")) 
toc()

0.772 sec elapsed

media_escolaridad

# A tibble: 692 × 4
# Groups:   COMUNA [346]
   COMUNA  sexo media glosa        
    <dbl> <dbl> <dbl> <chr>        
 1   1101     1  14.5 Iquique      
 2   1101     2  14.2 Iquique      
 3   1107     1  13.6 Alto Hospicio
 4   1107     2  13.1 Alto Hospicio
 5   1401     1  14.3 Pozo Almonte 
 6   1401     2  12.4 Pozo Almonte 
 7   1402     1  14.7 Camiña       
 8   1402     2  16.4 Camiña       
 9   1403     1  18.0 Colchane     
10   1403     2  15.1 Colchane     
# ℹ 682 more rows
…
# A tibble: 1 × 1
       rows
      <int>
1 245793521

Número de tuits por país

tic()
details %>% 
  group_by(Country) %>% 
  summarise(frecuencia = n()) %>% 
  collect()

# A tibble: 233 × 2
   Country frecuencia
   <chr>        <int>
 1 ""       244518623
 2 "US"        346046
 3 "GB"        108594
 4 "BR"         93078
 5 "ZA"         14317
 6 "AR"         30229
 7 "MX"         29674
 8 "ES"         32944
 9 "CA"         61335
10 "UY"          5238
# ℹ 223 more rows
…
# A tibble: 1 × 1
       rows
      <int>
1 245793521

¡Tardamos menos de un segundo!

tic()
details_parquet %>% 
  group_by(Country) %>% 
  summarise(frecuencia = n()) %>% 
  collect()

# A tibble: 233 × 2
   Country frecuencia
   <chr>        <int>
 1 ""       244518623
 2 "FR"         27312
 3 "BR"         93078
 4 "CA"         61335
 5 "MY"         13874
 6 "US"        346046
 7 "PE"          5092
 8 "IN"         70047
 9 "EG"          1725
10 "PY"          2965
# ℹ 223 more rows
…
Una operación más compleja

Carguemos tabla de sentimiento y details desde formato csv

sentiment_csv <- open_dataset("data/twitter/archive/Summary_Sentiment_ES/", format = "csv")
details_csv <- open_dataset("data/twitter/archive/Summary_Details/", format = "csv")

details_csv %>%
  left_join(sentiment_csv, by = "Tweet_ID") %>%  # agregar información de la tabla de sentimientos
  group_by(Country) %>% 
  summarise(frecuencia = mean(Probability_pos, na.rm = T)) %>% 
  collect() %>% 
  arrange(Country)

# A tibble: 233 × 2
   Country    frecuencia
   <chr>           <dbl>
 1 ""        0.122      
 2 "AD"      0.166      
 3 "AE"      0.190      
 4 "AF"    NaN          
 5 "AG"    NaN          
 6 "AI"    NaN          
 7 "AL"    NaN          
 8 "AM"      0.000000844
 9 "AO"    NaN          
10 "AQ"      0.176      
# ℹ 223 more rows
…
Vamos a conectarnos a una base de datos compacta

Contiene versiones pequeñas de los datos que hemos estado usando

con <- dbConnect(duckdb(), dbdir = "data/twitter.db", read_only = FALSE)

Al igual que con arrow, debemos usar collect para traernos los datos

tbl(con, "details") %>% 
  group_by(Country) %>% 
  summarise(frecuencia = n() ) %>% 
  collect()

# A tibble: 105 × 2
   Country frecuencia
   <chr>        <dbl>
 1 AR             297
 2 EG               4
 3 KW               3
 4 UY              49
 5 RS               2
 6 PY              21
 7 BO               5
 8 BD               2
 9 RE               1
10 VN               1
# ℹ 95 more rows
…
